\relax 
\providecommand\hyper@newdestlabel[2]{}
\providecommand\HyperFirstAtBeginDocument{\AtBeginDocument}
\HyperFirstAtBeginDocument{\ifx\hyper@anchor\@undefined
\global\let\oldcontentsline\contentsline
\gdef\contentsline#1#2#3#4{\oldcontentsline{#1}{#2}{#3}}
\global\let\oldnewlabel\newlabel
\gdef\newlabel#1#2{\newlabelxx{#1}#2}
\gdef\newlabelxx#1#2#3#4#5#6{\oldnewlabel{#1}{{#2}{#3}}}
\AtEndDocument{\ifx\hyper@anchor\@undefined
\let\contentsline\oldcontentsline
\let\newlabel\oldnewlabel
\fi}
\fi}
\global\let\hyper@last\relax 
\gdef\HyperFirstAtBeginDocument#1{#1}
\providecommand*\HyPL@Entry[1]{}
\HyPL@Entry{0<</S/r>>}
\select@language {english}
\@writefile{toc}{\select@language {english}}
\@writefile{lof}{\select@language {english}}
\@writefile{lot}{\select@language {english}}
\@writefile{toc}{\renewcommand {\@dotsep }{400}}
\@writefile{toc}{\contentsline {chapter}{ACKNOWLEDGMENTS}{ii}{section*.1}}
\@writefile{toc}{\renewcommand {\@dotsep }{0.5}}
\@writefile{toc}{\renewcommand {\@dotsep }{400}}
\@writefile{toc}{\contentsline {chapter}{ABSTRACT}{iii}{section*.2}}
\@writefile{toc}{\renewcommand {\@dotsep }{0.5}}
\@writefile{toc}{\thispagestyle {fancy}}
\@writefile{toc}{\fancyhead [L]{}}
\@writefile{toc}{\fancyhead [R]{\thepage }}
\@writefile{toc}{\renewcommand {\@dotsep }{400}}
\@writefile{toc}{\contentsline {chapter}{LIST OF TABLES}{vi}{section*.5}}
\@writefile{toc}{\renewcommand {\@dotsep }{0.5}}
\@writefile{lof}{\renewcommand {\@dotsep }{0.5}}
\@writefile{toc}{\renewcommand {\@dotsep }{400}}
\@writefile{toc}{\contentsline {chapter}{LIST OF FIGURES}{vii}{section*.7}}
\@writefile{toc}{\renewcommand {\@dotsep }{0.5}}
\HyPL@Entry{7<</S/D>>}
\@writefile{toc}{\contentsline {chapter}{\nocolonnumberline {\bfseries  1}\bfseries  \MakeUppercase  {Introduction}}{1}{chapter.1}}
\newlabel{ch:intro}{{1}{1}{Introduction}{chapter.1}{}}
\@writefile{toc}{\contentsline {section}{\nocolonnumberline {1.1}\MakeUppercase  {Motivation}}{1}{section.1.1}}
\newlabel{sec:motivation}{{1.1}{1}{Introduction}{section.1.1}{}}
\@writefile{toc}{\contentsline {section}{\nocolonnumberline {1.2}\MakeUppercase  {Problem Statement}}{1}{section.1.2}}
\newlabel{sec:problem}{{1.2}{1}{Introduction}{section.1.2}{}}
\@writefile{toc}{\contentsline {section}{\nocolonnumberline {1.3}\MakeUppercase  {Objective of project}}{2}{section.1.3}}
\newlabel{sec:objective}{{1.3}{2}{Introduction}{section.1.3}{}}
\@writefile{toc}{\contentsline {section}{\nocolonnumberline {1.4}\MakeUppercase  {Scope of the project}}{2}{section.1.4}}
\newlabel{sec:scope}{{1.4}{2}{Introduction}{section.1.4}{}}
\@writefile{toc}{\contentsline {section}{\nocolonnumberline {1.5}\MakeUppercase  {Expected Benefits}}{2}{section.1.5}}
\newlabel{sec:expected}{{1.5}{3}{Introduction}{section.1.5}{}}
\@writefile{toc}{\contentsline {section}{\nocolonnumberline {1.6}\MakeUppercase  {Organization of the Document}}{3}{section.1.6}}
\newlabel{sec:organization}{{1.6}{3}{Introduction}{section.1.6}{}}
\@writefile{toc}{\contentsline {chapter}{\nocolonnumberline {\bfseries  2}\bfseries  \MakeUppercase  {Background}}{4}{chapter.2}}
\newlabel{ch:background}{{2}{4}{Background}{chapter.2}{}}
\@writefile{toc}{\contentsline {section}{\nocolonnumberline {2.1}\MakeUppercase  {Background}}{4}{section.2.1}}
\newlabel{sec:section-label}{{2.1}{4}{Background}{section.2.1}{}}
\@writefile{toc}{\contentsline {subsection}{\nocolonnumberline {2.1.1}\MakeUppercase  {OAuth 1.0 [5]}}{4}{subsection.2.1.1}}
\@writefile{lof}{\contentsline {figure}{\numberline {2.1}{\ignorespaces OAuth 1.0 Flow\relax }}{5}{figure.caption.9}}
\providecommand*\caption@xref[2]{\@setref\relax\@undefined{#1}}
\newlabel{pic:flow}{{2.1}{5}{OAuth 1.0 Flow\relax }{figure.caption.9}{}}
\@writefile{toc}{\contentsline {subsection}{\nocolonnumberline {2.1.2}\MakeUppercase  {OAuth 2.0 [1]}}{6}{subsection.2.1.2}}
\@writefile{toc}{\contentsline {subsubsection}{\MakeUppercase  {Key different form OAuth 1.0}}{7}{section*.10}}
\@writefile{toc}{\contentsline {subsubsection}{\MakeUppercase  {2.1.2.1 Authentication and signature}}{7}{section*.11}}
\@writefile{lof}{\contentsline {figure}{\numberline {2.2}{\ignorespaces OAuth 2.0 Flow [6]\relax }}{8}{figure.caption.12}}
\newlabel{pic:flow2}{{2.2}{8}{OAuth 2.0 Flow [6]\relax }{figure.caption.12}{}}
\@writefile{toc}{\contentsline {subsection}{\nocolonnumberline {2.1.3}\MakeUppercase  {Burp Suite Community Edition [7]}}{9}{subsection.2.1.3}}
\@writefile{lof}{\contentsline {figure}{\numberline {2.3}{\ignorespaces List of Extention in BApp Store [8]\relax }}{10}{figure.caption.13}}
\newlabel{pic:exlist}{{2.3}{10}{List of Extention in BApp Store [8]\relax }{figure.caption.13}{}}
\@writefile{toc}{\contentsline {chapter}{\nocolonnumberline {\bfseries  3}\bfseries  \MakeUppercase  {Analysis and Design}}{11}{chapter.3}}
\newlabel{ch:analysis}{{3}{11}{Analysis and Design}{chapter.3}{}}
\@writefile{toc}{\contentsline {section}{\nocolonnumberline {3.1}\MakeUppercase  {System Architecture Overview}}{11}{section.3.1}}
\newlabel{sec:architectuer}{{3.1}{11}{Analysis and Design}{section.3.1}{}}
